run_id CI95%L CI CI95%U censoring AUROC95%L AUROC AUROC95%U brier_score censoring AUROC95%L AUROC AUROC95%U brier_score censoring AUROC95%L AUROC AUROC95%U brier_score censoring AUROC95%L AUROC AUROC95%U brier_score censoring AUROC95%L AUROC AUROC95%U brier_score censoring AUROC95%L AUROC AUROC95%U brier_score censoring AUROC95%L AUROC AUROC95%U brier_score
lig-getalp_T1a_M6_GBsurv 0.673772915499179 0.70388332423821 0.733993732977241 12 0.729037655671109 0.781196943972835 0.833356232274561 0.253933313731778 18 0.738563488734646 0.786496989217196 0.834430489699747 0.206892347243402 24 0.726570627404674 0.776662348877375 0.826754070350075 0.199255957032641 30 0.741903055976265 0.793741815151395 0.845580574326525 0.195689137827381 36 0.746594194539701 0.798054404611782 0.849514614683862 0.205452676716418 48 0.76039602551663 0.819024026062169 0.877652026607708 0.229202876223565 60 0.723114111964553 0.802241161616162 0.88136821126777 0.259424082765957
lig-getalp_T1a_M6_GBsurv_c 0.673772915499179 0.70388332423821 0.733993732977241 12 0.729037655671109 0.781196943972835 0.833356232274561 0.253933313731778 18 0.738563488734646 0.786496989217196 0.834430489699747 0.206892347243402 24 0.726570627404674 0.776662348877375 0.826754070350075 0.199255957032641 30 0.741903055976265 0.793741815151395 0.845580574326525 0.195689137827381 36 0.746594194539701 0.798054404611782 0.849514614683862 0.205452676716418 48 0.76039602551663 0.819024026062169 0.877652026607708 0.229202876223565 60 0.723114111964553 0.802241161616162 0.88136821126777 0.259424082765957
