run_id CI95%L CI CI95%U censoring AUROC95%L AUROC AUROC95%U brier_score censoring AUROC95%L AUROC AUROC95%U brier_score censoring AUROC95%L AUROC AUROC95%U brier_score censoring AUROC95%L AUROC AUROC95%U brier_score censoring AUROC95%L AUROC AUROC95%U brier_score censoring AUROC95%L AUROC AUROC95%U brier_score censoring AUROC95%L AUROC AUROC95%U brier_score
lig-getalp_T1b_M0_GBsurv 0.66695809343986 0.6945637056298 0.722169317819739 12 0.708952370555095 0.763337053571429 0.817721736587762 0.301338879278846 18 0.720785066725327 0.76639966686263 0.812014266999933 0.229048098792271 24 0.707572186068845 0.75420086914534 0.800829552221836 0.210264540392157 30 0.73145361275328 0.779188297642224 0.826922982531168 0.192726714482759 36 0.738567904685911 0.787583182093164 0.836598459500417 0.194087467524752 48 0.747127180996702 0.802688079697698 0.858248978398695 0.207390109974937 60 0.733162052724828 0.795239548367409 0.85731704400999 0.217204989521411
lig-getalp_T1b_M0_GBsurv_c 0.66695809343986 0.6945637056298 0.722169317819739 12 0.708952370555095 0.763337053571429 0.817721736587762 0.301338879278846 18 0.720785066725327 0.76639966686263 0.812014266999933 0.229048098792271 24 0.707572186068845 0.75420086914534 0.800829552221836 0.210264540392157 30 0.73145361275328 0.779188297642224 0.826922982531168 0.192726714482759 36 0.738567904685911 0.787583182093164 0.836598459500417 0.194087467524752 48 0.747127180996702 0.802688079697698 0.858248978398695 0.207390109974937 60 0.733162052724828 0.795239548367409 0.85731704400999 0.217204989521411
