0xd26d82e70be8a467872b4b23cd851c3a 6-12 0 NIV lig-getalp_T2a_M0_GBsurv
0xd3ee37821226aa86382711f993370ef8 12-18 1 NIV lig-getalp_T2a_M0_GBsurv
0xf56f03896712bce7df54fcc6c4d4e317 12-18 2 NIV lig-getalp_T2a_M0_GBsurv
0xea31d04befc74fc9e2fcd95610257670 12-18 3 NIV lig-getalp_T2a_M0_GBsurv
0xf4f2553c05bed4c3641960d1326ae10b 12-18 4 NIV lig-getalp_T2a_M0_GBsurv
0xe1243501dccecd29c201b7a93e1c3785 12-18 5 NIV lig-getalp_T2a_M0_GBsurv
0xd53604e8a14246f6ac13809f369bc9fe 12-18 6 NIV lig-getalp_T2a_M0_GBsurv
0xf0cce8b217b6cece44d7c415dcc41fb0 12-18 7 NIV lig-getalp_T2a_M0_GBsurv
0xe2d33655c094ef8a373c0039122d9a7e 12-18 8 DEATH lig-getalp_T2a_M0_GBsurv
0xf688e66f6457a8d658ff91c39e74fded 12-18 9 DEATH lig-getalp_T2a_M0_GBsurv
0xf34134b9e4d84f0747e1b671e7ffc77f 12-18 10 NIV lig-getalp_T2a_M0_GBsurv
0xebe2c7d10de4b1f1a07007d80a59fece 12-18 11 NIV lig-getalp_T2a_M0_GBsurv
0xeea35f2d789b18b2869b6be01a6d016b 12-18 12 NIV lig-getalp_T2a_M0_GBsurv
0xee954eee6763a75b49356fd60400df96 18-24 13 NIV lig-getalp_T2a_M0_GBsurv
0xf529bd25b4480431bfbba5d6f2e28a74 6-12 14 DEATH lig-getalp_T2a_M0_GBsurv
0xd7d862d8832214c47e56f7bf814a80ab 12-18 15 DEATH lig-getalp_T2a_M0_GBsurv
0xec1b1fb1dcc7b585296d94f07743df75 12-18 16 DEATH lig-getalp_T2a_M0_GBsurv
0xfe6e4b0c7e68f9f149150293ea9423a9 12-18 17 NIV lig-getalp_T2a_M0_GBsurv
0xf7bf2541be8877afdf8a7b3b3438fc52 12-18 18 NIV lig-getalp_T2a_M0_GBsurv
0xf302dc063ff300d32a6ee2efab28b92d 12-18 19 NIV lig-getalp_T2a_M0_GBsurv
0xf1c610f643e2254e1e6bcd9f9fbb788f 12-18 20 NIV lig-getalp_T2a_M0_GBsurv
0xe5144e8e0dc88e7e42acc50fa0a3bd5e 12-18 21 NIV lig-getalp_T2a_M0_GBsurv
0xd60c2abd7d42886e8a351fe84fa94a4 12-18 22 DEATH lig-getalp_T2a_M0_GBsurv
0xe548fbdf7a480b6c172700c24266db93 12-18 23 DEATH lig-getalp_T2a_M0_GBsurv
0xd3b7c5fb0c510b91174df4e6ba01f066 12-18 24 NIV lig-getalp_T2a_M0_GBsurv
0xea6e9e8593e17577e3160c2a1946d1f6 12-18 25 NIV lig-getalp_T2a_M0_GBsurv
0xe09643fdfa382af3b615067ba53e3ec9 12-18 26 DEATH lig-getalp_T2a_M0_GBsurv
0xf69395f0e9f8d7696c20d803a23345bd 12-18 27 DEATH lig-getalp_T2a_M0_GBsurv
0xdb5a760520e0194350467f91b656a4a4 12-18 28 NIV lig-getalp_T2a_M0_GBsurv
0xd88837402c4e93085d4cc6f7a9c24cc1 12-18 29 DEATH lig-getalp_T2a_M0_GBsurv
0xda3cd952705fe75d00d50ca811b8db7 12-18 30 NIV lig-getalp_T2a_M0_GBsurv
0xf4fe5de72a7b60434995feb9f494f3a8 12-18 31 NIV lig-getalp_T2a_M0_GBsurv
0xeae8c46d82b48cc87efccde5a796cc0 12-18 32 DEATH lig-getalp_T2a_M0_GBsurv
0xe7414527e960338f49cb82d3cd44bf58 12-18 33 NIV lig-getalp_T2a_M0_GBsurv
0xe8885be345a04b02b8a8086f9859e0ba 24-30 34 NIV lig-getalp_T2a_M0_GBsurv
0xfd0b34dab06d3ffbac27187fdf686edb 12-18 35 DEATH lig-getalp_T2a_M0_GBsurv
0xd3761335574bf2556048bb99f96c4012 30-36 36 NIV lig-getalp_T2a_M0_GBsurv
0xf1a0c725e956c72ee92590d8dcfefb58 12-18 37 NIV lig-getalp_T2a_M0_GBsurv
0xe7a85df03166d972a57667b88a86f8c 12-18 38 DEATH lig-getalp_T2a_M0_GBsurv
0xe98b50fd5e1b71343db2db67b7e4b499 >36 39 NIV lig-getalp_T2a_M0_GBsurv
0xfa239063a630e9e5929acf1f91f9a3da 12-18 40 DEATH lig-getalp_T2a_M0_GBsurv
0xff0dc46026c4c7377acc0612dd14888d 12-18 41 NIV lig-getalp_T2a_M0_GBsurv
0xfdeac27ee0e72aca88b427bb87909368 12-18 42 NIV lig-getalp_T2a_M0_GBsurv
0xf4fa7bd79c7b95cb9e90f1e80687dc56 12-18 43 NIV lig-getalp_T2a_M0_GBsurv
0xf71142822940f1367d768de7f2c82c00 12-18 44 DEATH lig-getalp_T2a_M0_GBsurv
0xdc56995bc7b7f90c80986aabdbc5ada1 12-18 45 NIV lig-getalp_T2a_M0_GBsurv
0xd99207a82b9ebf093a36d905b4104fb5 12-18 46 NIV lig-getalp_T2a_M0_GBsurv
0xd31b65ca63d9b4aa65f7c18ab924189a 12-18 47 NIV lig-getalp_T2a_M0_GBsurv
0xeab860b4b293424189f429e7d089d61a 12-18 48 DEATH lig-getalp_T2a_M0_GBsurv
0xeca63b2021a883ab075f46cf5d0c0c4c 12-18 49 NIV lig-getalp_T2a_M0_GBsurv
0xf213112adb4999d5a440d900a689fb5b 12-18 50 DEATH lig-getalp_T2a_M0_GBsurv
0xd5043ae62b88bbb0e6f5fde21a8a65a2 12-18 51 DEATH lig-getalp_T2a_M0_GBsurv
0xf7800c3c145eb89a00eec9394dbf9aa0 12-18 52 NIV lig-getalp_T2a_M0_GBsurv
0xdd97a1c26fa0eb26748f253bbd060287 12-18 53 DEATH lig-getalp_T2a_M0_GBsurv
0xfd82b366738c82f8a704f1cac062c88b 12-18 54 DEATH lig-getalp_T2a_M0_GBsurv
0xfd393a5687cc418359d4af8ce52fb04 12-18 55 NIV lig-getalp_T2a_M0_GBsurv
0xdca93142c5222da1fe22972387e81d8d 12-18 56 NIV lig-getalp_T2a_M0_GBsurv
0xdc103e9d0b714bbf9039509839a33d58 12-18 57 NIV lig-getalp_T2a_M0_GBsurv
0xe95317d9ab2f9930a73d4bbc86c4c13a 12-18 58 NIV lig-getalp_T2a_M0_GBsurv
0xf82230e4bcd875a07dc1bf0771cee5a2 12-18 59 NIV lig-getalp_T2a_M0_GBsurv
0xe97dee51285e88b33b4c0761066df1e 12-18 60 NIV lig-getalp_T2a_M0_GBsurv
0xd947420e9d8d72f2cc88d9aa94d716de 12-18 61 NIV lig-getalp_T2a_M0_GBsurv
0xdfd6ff34ba7f6abb38fa7ae9894d4d06 12-18 62 DEATH lig-getalp_T2a_M0_GBsurv
0xf2e4385cd98a2ef4b84b251b38f66b36 12-18 63 NIV lig-getalp_T2a_M0_GBsurv
0xfd1d5c688d32c592344c0b477526d572 12-18 64 NIV lig-getalp_T2a_M0_GBsurv
0xd2a42221873cdea520585a5d5c88969f 12-18 65 DEATH lig-getalp_T2a_M0_GBsurv
0xf103163cba9f07e058ce756b944886c1 12-18 66 DEATH lig-getalp_T2a_M0_GBsurv
0xfa1fc7c435f2de6bdb7ed4fc644e5aa6 12-18 67 DEATH lig-getalp_T2a_M0_GBsurv
0xe2da7898817d9475a66b89d99b0a6e12 12-18 68 NIV lig-getalp_T2a_M0_GBsurv
0xf2d107e07b799de2b3691edc490fcdee 18-24 69 DEATH lig-getalp_T2a_M0_GBsurv
0xfbdb5a662aec0ca496557ec37f20d219 12-18 70 NIV lig-getalp_T2a_M0_GBsurv
0xeec173e09e95045435808ae11ef6a5f5 12-18 71 NIV lig-getalp_T2a_M0_GBsurv
0xeb5be1e7fd6b7b2b20b9fef2b9701c76 18-24 72 NIV lig-getalp_T2a_M0_GBsurv
0xee3a19f52a50ecd49188235eb57b1d72 12-18 73 DEATH lig-getalp_T2a_M0_GBsurv
0xf8f2dec4be3bc8d3dc2a48831dd912be 12-18 74 NIV lig-getalp_T2a_M0_GBsurv
0xe03eb5db3bd06ad4f2e316136029276e 12-18 75 DEATH lig-getalp_T2a_M0_GBsurv
0xec4bcb0a1930afa5232d2f6dc86b9177 12-18 76 NIV lig-getalp_T2a_M0_GBsurv
0xfd7364d0c76517b4939aed94bf9558d 12-18 77 NIV lig-getalp_T2a_M0_GBsurv
0xe611e0187ce0a2383d06e8b7c4bdd82d 12-18 78 NIV lig-getalp_T2a_M0_GBsurv
0xfc75a58392a25eac28f8eabd1693466b 12-18 79 NIV lig-getalp_T2a_M0_GBsurv
0xe5a7736524fb5fcf98c1aef549cab227 12-18 80 NIV lig-getalp_T2a_M0_GBsurv
0xee8bfccacb125b541b17fdc2464757cc 12-18 81 DEATH lig-getalp_T2a_M0_GBsurv
0xf5eeae64002862bbbe0cb0d1667ffa56 12-18 82 DEATH lig-getalp_T2a_M0_GBsurv
0xf8989307a3cc4e26889fd3e10f022ed5 12-18 83 DEATH lig-getalp_T2a_M0_GBsurv
0xfb46f742b267f2c6067298fce3e870cb 12-18 84 NIV lig-getalp_T2a_M0_GBsurv
0xf188774bc59c58292edda7342dde3a3a 12-18 85 NIV lig-getalp_T2a_M0_GBsurv
0xf3f096ee783aa5fd0723a87fb8bc12be 12-18 86 DEATH lig-getalp_T2a_M0_GBsurv
0xec78b838a78beb8f98adeacf43c3d646 18-24 87 NIV lig-getalp_T2a_M0_GBsurv
0xff800da9a7a2fc4a01db45e4e8bb9b63 12-18 88 NIV lig-getalp_T2a_M0_GBsurv
0xd6f42694625c79b8219804527461c42 12-18 89 NIV lig-getalp_T2a_M0_GBsurv
0xd73f9466b0c710dde7c345775f14b3be 18-24 90 NIV lig-getalp_T2a_M0_GBsurv
0xffea07026ee4819bc346649ddad2d740 18-24 91 NIV lig-getalp_T2a_M0_GBsurv
0xe52cf316e1e3097536676407e4e031a0 18-24 92 DEATH lig-getalp_T2a_M0_GBsurv
0xde517225b56631a6ed23488cfb0d4a54 18-24 93 NIV lig-getalp_T2a_M0_GBsurv
0xd27138ac1133341363af73b557e744f5 18-24 94 DEATH lig-getalp_T2a_M0_GBsurv
0xfd1b9d000bab595412ab90d849c98927 18-24 95 NIV lig-getalp_T2a_M0_GBsurv
0xfa9882c168e02e5b6a87757e6b6b9b22 12-18 96 NIV lig-getalp_T2a_M0_GBsurv
0xd47e5fd14b1f26a916ed2808c6cb0dc2 12-18 97 NIV lig-getalp_T2a_M0_GBsurv
0xdd9bf04b864ca70e3747743c75fd5d15 12-18 98 DEATH lig-getalp_T2a_M0_GBsurv
0xeecc0a28a6ea86c50224dcb2530f4706 12-18 99 NIV lig-getalp_T2a_M0_GBsurv
0xfd2e06a25a21d1558c6bd8fdfa1d5b6f 12-18 100 NIV lig-getalp_T2a_M0_GBsurv
0xed99d8ce85b98ac336bfe40b81f2e926 12-18 101 NIV lig-getalp_T2a_M0_GBsurv
0xde3661c7ed3dc0a21a37fc693b75b963 12-18 102 NIV lig-getalp_T2a_M0_GBsurv
0xf9a50982020767a3819aef62ef7cf85a 12-18 103 DEATH lig-getalp_T2a_M0_GBsurv
0xfa54e05f1e04e2ed49738336f4c3a84f 18-24 104 NIV lig-getalp_T2a_M0_GBsurv
0xd7717aa6288c4cf6ffab22bf25544fd7 12-18 105 NIV lig-getalp_T2a_M0_GBsurv
0xffb2d295bf7d88afcf7738b39ff9503d 12-18 106 DEATH lig-getalp_T2a_M0_GBsurv
0xfed064f01a1708aac1ea3caca9e7aebc 12-18 107 NIV lig-getalp_T2a_M0_GBsurv
0xdebc17bef1084afcb99a1e691bc29ae 12-18 108 NIV lig-getalp_T2a_M0_GBsurv
0xd244a1f9c20c3f18776c0091e4a2f1 12-18 109 DEATH lig-getalp_T2a_M0_GBsurv
0xe71b3e912d71806b02f8dc57534c7e5c 12-18 110 NIV lig-getalp_T2a_M0_GBsurv
0xf5895fdb58c6d5fe6a2717d546c14764 18-24 111 DEATH lig-getalp_T2a_M0_GBsurv
0xf8dc68d9a1c5c169583ca3d4dfa5c214 12-18 112 DEATH lig-getalp_T2a_M0_GBsurv
0xf9bbabe811e269d8cf2be964e07594bc 12-18 113 NIV lig-getalp_T2a_M0_GBsurv
0xd5ec6e9cb0c8457b75773d5c896c97e2 18-24 114 NIV lig-getalp_T2a_M0_GBsurv
0xeeaef2090e6697ea49cd4754c1e7fc52 12-18 115 DEATH lig-getalp_T2a_M0_GBsurv
0xeceb727a34f8dde7f27bbdcc70559e3c 12-18 116 NIV lig-getalp_T2a_M0_GBsurv
0xd32d8b8316d08d4c934e0db5b4cbbbab 18-24 117 NIV lig-getalp_T2a_M0_GBsurv
0xeb7bf54305340d3d8e4f280abeb7473 12-18 118 DEATH lig-getalp_T2a_M0_GBsurv
0xf27bededb6f7fb7d23de734413cc8da2 18-24 119 DEATH lig-getalp_T2a_M0_GBsurv
0xfb313a896f03bab8c319262f69eb0cc 24-30 120 NIV lig-getalp_T2a_M0_GBsurv
0xf53b3ecfaf3cf0310b8679cb9332c1d 18-24 121 NIV lig-getalp_T2a_M0_GBsurv
0xd317b8d1717b6cde303ef3732e3cfb71 12-18 122 DEATH lig-getalp_T2a_M0_GBsurv
0xfe0a4f8776ac746a638672323b26970f 18-24 123 NIV lig-getalp_T2a_M0_GBsurv
0xd5426d42d32f8b8fde9d9c98d48db81f 12-18 124 DEATH lig-getalp_T2a_M0_GBsurv
0xeac9347ec35cb5dc7bb8c79a03b92c33 12-18 125 NIV lig-getalp_T2a_M0_GBsurv
0xfbac1c67b95ce1057128c431a2cdee75 18-24 126 NIV lig-getalp_T2a_M0_GBsurv
0xd27701d9404e65f294879671f8969a3a 12-18 127 DEATH lig-getalp_T2a_M0_GBsurv
0xe0020cb9777c4cfa55a538a0b30bb4fb 12-18 128 NIV lig-getalp_T2a_M0_GBsurv
0xff9195ae018b73c7b70024c9dbf7c8d8 12-18 129 NIV lig-getalp_T2a_M0_GBsurv
0xfb08439610a68a0e85a6eb06d412e34c 12-18 130 NIV lig-getalp_T2a_M0_GBsurv
0xfb8d03bebaba360a9a6086d80513029a 12-18 131 DEATH lig-getalp_T2a_M0_GBsurv
0xe03c0e77caeee1175d806396ea7f394f 18-24 132 DEATH lig-getalp_T2a_M0_GBsurv
0xd417279bb6053beedd7777f2c6f35582 12-18 133 NIV lig-getalp_T2a_M0_GBsurv
0xf78ead80e7859b6ad13d1a038a7db8f8 12-18 134 DEATH lig-getalp_T2a_M0_GBsurv
0xed10665bf8c36beb50f95ea6199c0017 12-18 135 DEATH lig-getalp_T2a_M0_GBsurv
0xf9cf1b69a3cac1563c0cb355d7df83c7 18-24 136 NIV lig-getalp_T2a_M0_GBsurv
0xd987b922e81f9eaeebb9a09c2bfa0e30 12-18 137 NIV lig-getalp_T2a_M0_GBsurv
0xf216cafbe04caffbd7664cc23a2db83d 12-18 138 NIV lig-getalp_T2a_M0_GBsurv
0xd9f5dd90d4a81a83ecea564806ce241b 12-18 139 NIV lig-getalp_T2a_M0_GBsurv
0xdddf585b28242c749d927d5be4bc1301 12-18 140 NIV lig-getalp_T2a_M0_GBsurv
0xe1b521e5c1ba0a32f7c946d8e6e45785 18-24 141 DEATH lig-getalp_T2a_M0_GBsurv
0xd5c337472199810ecb872821d9788346 18-24 142 NIV lig-getalp_T2a_M0_GBsurv
0xfd70e2ffdac9d7227f1870f3b2e11fa6 12-18 143 DEATH lig-getalp_T2a_M0_GBsurv
0xe1911c880481ae1c7ceea1c15ee76b7a 12-18 144 NIV lig-getalp_T2a_M0_GBsurv
0xeb8326312cceeb12d9960732cf4f5155 12-18 145 DEATH lig-getalp_T2a_M0_GBsurv
0xe7e58da752f329f4c502a1e99da9163e 18-24 146 NIV lig-getalp_T2a_M0_GBsurv
0xfd2274eb15b71024039d32eb1edefe55 18-24 147 NIV lig-getalp_T2a_M0_GBsurv
0xd5edb5ec1169f1a5c865ae83f0af14e8 18-24 148 NIV lig-getalp_T2a_M0_GBsurv
0xd74b09cba6eae315293ad458e6bcc9f2 12-18 149 NIV lig-getalp_T2a_M0_GBsurv
0xe7bbea70b46ca3563c52cf93d7f77e6e 18-24 150 NIV lig-getalp_T2a_M0_GBsurv
0xfb6b11f879e8c94bc40e422f9219b39a 18-24 151 NIV lig-getalp_T2a_M0_GBsurv
0xf38fdc686f3ccffbeb4d8cf31d935f5d 12-18 152 DEATH lig-getalp_T2a_M0_GBsurv
0xf00d4ed29db7deec9288516fdb87da9c 18-24 153 DEATH lig-getalp_T2a_M0_GBsurv
0xd41a3ee089ce64b7aab7b3f5ff2b08a6 18-24 154 DEATH lig-getalp_T2a_M0_GBsurv
0xfdc48e7bc026e1057eac3f2461cdccdc 18-24 155 NIV lig-getalp_T2a_M0_GBsurv
0xea6ee484c00cfac85c2b41b32ec3945b 12-18 156 NIV lig-getalp_T2a_M0_GBsurv
0xe9552678c63ee3b6c313766e97753dbc 24-30 157 NIV lig-getalp_T2a_M0_GBsurv
0xe9198c51686e6b6214bdb714eaf10a2e 24-30 158 NIV lig-getalp_T2a_M0_GBsurv
0xf950685edb82c4ec4f7a08666017a011 12-18 159 NIV lig-getalp_T2a_M0_GBsurv
0xed33bc879bc2074ac2e72632e9505f81 18-24 160 DEATH lig-getalp_T2a_M0_GBsurv
0xf44e148c018f050d4bb41962d37da746 18-24 161 DEATH lig-getalp_T2a_M0_GBsurv
0xde0743f85184390d3bc39c19bf2ea2ae 18-24 162 NIV lig-getalp_T2a_M0_GBsurv
0xff7def9ae79d9c965bf2ab55a63ab030 12-18 163 DEATH lig-getalp_T2a_M0_GBsurv
0xee3f8a31ebc825766c6f42a32f3d806a 12-18 164 DEATH lig-getalp_T2a_M0_GBsurv
0xf10d4ea92d3f8bd97a8e97335420ec9d 18-24 165 NIV lig-getalp_T2a_M0_GBsurv
0xe50e1671eae00837186f48081823f6a 18-24 166 NIV lig-getalp_T2a_M0_GBsurv
0xf4ad456ae4633925638b9d86775112eb 18-24 167 NIV lig-getalp_T2a_M0_GBsurv
0xe936c1effb682d71174c5873419f7029 18-24 168 NIV lig-getalp_T2a_M0_GBsurv
0xf44f6c6ed032569f224aca85ed0cbfec 12-18 169 DEATH lig-getalp_T2a_M0_GBsurv
0xdb66fea36c893712201bde1649b162fe 12-18 170 NIV lig-getalp_T2a_M0_GBsurv
0xda807cd4f873161d3d7e48c2af27764c 18-24 171 NIV lig-getalp_T2a_M0_GBsurv
0xeb98c8fbd6d496d367e7e63250ff829 24-30 172 NIV lig-getalp_T2a_M0_GBsurv
0xf9a0baa40a5828cc4eb1e2c2e2381da2 18-24 173 NIV lig-getalp_T2a_M0_GBsurv
0xde976fcdacf209af454093bc0d008a50 24-30 174 NIV lig-getalp_T2a_M0_GBsurv
0xec869599b2d2828d526ab101d0aca22 18-24 175 DEATH lig-getalp_T2a_M0_GBsurv
0xfecb8afae7771e7ae7d8df54b515c382 18-24 176 DEATH lig-getalp_T2a_M0_GBsurv
0xefdf46113860766941eca0395f5f5a78 18-24 177 DEATH lig-getalp_T2a_M0_GBsurv
0xdab201c23fc655b741604ffff04fb576 18-24 178 DEATH lig-getalp_T2a_M0_GBsurv
0xeaed8517edbbb934b65bb5ada72c4326 18-24 179 NIV lig-getalp_T2a_M0_GBsurv
0xf8755572377a8aec60f0daf413ccbb4b 12-18 180 DEATH lig-getalp_T2a_M0_GBsurv
0xff2a4d24028b93bb9f199542657cafce 18-24 181 DEATH lig-getalp_T2a_M0_GBsurv
0xef1713560b9daaa3e34cb59dd8037f2f 18-24 182 DEATH lig-getalp_T2a_M0_GBsurv
0xe754c66fac138eda1909d340c552150f 18-24 183 NIV lig-getalp_T2a_M0_GBsurv
0xf2a2ce275115e111ae5a22ad3429026c 18-24 184 NIV lig-getalp_T2a_M0_GBsurv
0xe24abba1dbd4bf308cc5c3edd30f3aaf 18-24 185 NIV lig-getalp_T2a_M0_GBsurv
0xfdb6f07f84bc999d042f37dc3450856e 18-24 186 DEATH lig-getalp_T2a_M0_GBsurv
0xd36c161f1116c89d7b96cd22a3c72459 12-18 187 DEATH lig-getalp_T2a_M0_GBsurv
0xdf43cfb79350350b0b0b4f4e9e8cc141 18-24 188 NIV lig-getalp_T2a_M0_GBsurv
0xf280278b67e8710e087249dad21da735 24-30 189 NIV lig-getalp_T2a_M0_GBsurv
0xe6aaabecc286c2da050879aacc52273 18-24 190 NIV lig-getalp_T2a_M0_GBsurv
0xfbc694fefaa0cd13396b8dc271863e35 18-24 191 NIV lig-getalp_T2a_M0_GBsurv
0xf97f3c95956730a68e1fe95cd9e451a2 18-24 192 NIV lig-getalp_T2a_M0_GBsurv
0xf94bb7a20ca8cb7706f518420785d5e0 18-24 193 NIV lig-getalp_T2a_M0_GBsurv
0xf0f77e6f043c61c37cf0e7c3d0e3c754 18-24 194 NIV lig-getalp_T2a_M0_GBsurv
0xd3690d7f264d59ee3b2ebc6169757913 18-24 195 NIV lig-getalp_T2a_M0_GBsurv
0xd333c66f71dcbce577612ecbfdaac2a8 18-24 196 DEATH lig-getalp_T2a_M0_GBsurv
0xec63a43004d49655727a77cf1907da9b 12-18 197 DEATH lig-getalp_T2a_M0_GBsurv
0xf5b897d01df647df2ae8611b87206c69 18-24 198 NIV lig-getalp_T2a_M0_GBsurv
0xe60673d48d2ab455e24ddd8782f542 18-24 199 NIV lig-getalp_T2a_M0_GBsurv
0xf833a171c98fd18777becac7328377e5 18-24 200 DEATH lig-getalp_T2a_M0_GBsurv
0xf648b61ecd9ef2453a2e443d2ba184b3 18-24 201 NIV lig-getalp_T2a_M0_GBsurv
0xe2bcb1edb8f34ed00792515d9e8f45a4 18-24 202 NIV lig-getalp_T2a_M0_GBsurv
0xea09e79af31bf049776f88fb4dd6cfe2 30-36 203 NIV lig-getalp_T2a_M0_GBsurv
0xf82812ebdea85ea1aa475f6a802c819b 24-30 204 NIV lig-getalp_T2a_M0_GBsurv
0xe2459ee8b4c7c07a0c3186049b3e1d43 18-24 205 DEATH lig-getalp_T2a_M0_GBsurv
0xd812ab30e47bb673fca4238f569e43fc 18-24 206 NIV lig-getalp_T2a_M0_GBsurv
0xdf69e78176d39a97097368c5a5ab0aba 18-24 207 NIV lig-getalp_T2a_M0_GBsurv
0xd31520068ec294753fb4be6f9fb8ae35 12-18 208 NIV lig-getalp_T2a_M0_GBsurv
0xfe68d3eaaab39e7ec05260e9f6f3b594 18-24 209 DEATH lig-getalp_T2a_M0_GBsurv
0xd718fbf5e5448b16ffb18ccaf30f844a 12-18 210 DEATH lig-getalp_T2a_M0_GBsurv
0xfb9b007e9edd75c26a83395469cff112 18-24 211 NIV lig-getalp_T2a_M0_GBsurv
0xef8a3804eb6d65718f090a1fd1cb1cfb 18-24 212 NIV lig-getalp_T2a_M0_GBsurv
0xfaf00e55746069b29728118912287df5 24-30 213 NIV lig-getalp_T2a_M0_GBsurv
0xe261d744e25db88b07b0a0702f5843a1 >36 214 NIV lig-getalp_T2a_M0_GBsurv
0xe75b0b6e1f9037b4c31a1752618e81b5 12-18 215 NIV lig-getalp_T2a_M0_GBsurv
0xde3ebb711c6d4dd2fc6aaed819e56904 18-24 216 DEATH lig-getalp_T2a_M0_GBsurv
0xe0b8838933d9689cf370722b5475b6b2 24-30 217 NIV lig-getalp_T2a_M0_GBsurv
0xe75da17b210d09562c2494dbe0146b54 18-24 218 DEATH lig-getalp_T2a_M0_GBsurv
0xe5503eff502e4079eeb7b70a8e81624f 18-24 219 DEATH lig-getalp_T2a_M0_GBsurv
0xefbd105005fbd4c913e67f1e04cea00b 18-24 220 NIV lig-getalp_T2a_M0_GBsurv
0xfeee1b962c83164cd24885a790f8f1cf 24-30 221 DEATH lig-getalp_T2a_M0_GBsurv
0xd9ce87a4ce5b4b7068a7718a2b6d70a8 24-30 222 DEATH lig-getalp_T2a_M0_GBsurv
0xf766abd56d68ad3f98a669e428314623 18-24 223 NIV lig-getalp_T2a_M0_GBsurv
0xebae5bb4a98b834864213f16f917dc69 18-24 224 DEATH lig-getalp_T2a_M0_GBsurv
0xe011d3b8d1d2afa89a4f3ad809e82f61 24-30 225 NIV lig-getalp_T2a_M0_GBsurv
0xe561d548069a6f943e73d3242b6ad1e >36 226 NIV lig-getalp_T2a_M0_GBsurv
0xea0eff4909b5dd55afbef60ffb4e3101 18-24 227 NIV lig-getalp_T2a_M0_GBsurv
0xd7bf8d698833b47c11ab207cc04b89c9 24-30 228 NIV lig-getalp_T2a_M0_GBsurv
0xdea18430383df9271f5f954a1d7aa89f 18-24 229 NIV lig-getalp_T2a_M0_GBsurv
0xef2d65a03b94ad521ce01a01902cddbc 12-18 230 NIV lig-getalp_T2a_M0_GBsurv
0xe186efe19dcf7c7050a226f1d5f304ae 18-24 231 DEATH lig-getalp_T2a_M0_GBsurv
0xd699c91c0883d77bc456636836f4757c 18-24 232 DEATH lig-getalp_T2a_M0_GBsurv
0xd2b30a43f8fb2fdf2541ce2b52411751 18-24 233 DEATH lig-getalp_T2a_M0_GBsurv
0xf45f2136fc41ad2a85fd11aa40df27c5 18-24 234 DEATH lig-getalp_T2a_M0_GBsurv
0xec30d4197a860e6d31f7a1336b256568 18-24 235 DEATH lig-getalp_T2a_M0_GBsurv
0xdcf3911b063dd9046757764fce68259d 18-24 236 DEATH lig-getalp_T2a_M0_GBsurv
0xe3571e398dc254de7638a7937035be70 24-30 237 NIV lig-getalp_T2a_M0_GBsurv
0xd6ceb97d4ad0065684a61fa954b61398 18-24 238 NIV lig-getalp_T2a_M0_GBsurv
0xed67617d0fa4e6715aeb4bb060397e9a 24-30 239 DEATH lig-getalp_T2a_M0_GBsurv
0xda5c46fe14bcc02dd330b6f33d4d2b69 18-24 240 DEATH lig-getalp_T2a_M0_GBsurv
0xdaac19ce7fb25ca7da5241ef8e13a995 18-24 241 DEATH lig-getalp_T2a_M0_GBsurv
0xd756384a94be6177659d1c36c1096aa4 24-30 242 NIV lig-getalp_T2a_M0_GBsurv
0xd944807f0027bf43b7786e4bd9b8e9ef 18-24 243 DEATH lig-getalp_T2a_M0_GBsurv
0xe922d2f4df2427f8372559c67f9558ff 18-24 244 NIV lig-getalp_T2a_M0_GBsurv
0xd675843b3b012885484e0637ea0333f8 18-24 245 DEATH lig-getalp_T2a_M0_GBsurv
0xea7bc1be9d79fce7043d34eee9eb3fb 18-24 246 NIV lig-getalp_T2a_M0_GBsurv
0xf8240b7302429c49504a9230ce6a5428 18-24 247 DEATH lig-getalp_T2a_M0_GBsurv
0xf9079405694f19b4849f68c05e06e474 18-24 248 DEATH lig-getalp_T2a_M0_GBsurv
0xdd0862a04c30e83bb0603190b7f66f4e 12-18 249 NIV lig-getalp_T2a_M0_GBsurv
0xdb5dc80f29a179038e60bbffd2c97e64 18-24 250 DEATH lig-getalp_T2a_M0_GBsurv
0xdf89ee61d738c89777ac8917091d7b5f 18-24 251 NIV lig-getalp_T2a_M0_GBsurv
0xebb8cde3b65772cb963be4146bf426e5 18-24 252 DEATH lig-getalp_T2a_M0_GBsurv
0xd82e2ab264accdedf1746f2fff6aa04e 18-24 253 NIV lig-getalp_T2a_M0_GBsurv
0xd5f53f8c1c47ccaa895aaf51ced0e80a 18-24 254 DEATH lig-getalp_T2a_M0_GBsurv
0xfe575fd2cf4dc619ebd32287145eea83 18-24 255 NIV lig-getalp_T2a_M0_GBsurv
0xf467dbbc2c3f8b542b86b790c5b911a2 18-24 256 DEATH lig-getalp_T2a_M0_GBsurv
0xe1f9255fd859bedca208a17db00b5737 24-30 257 DEATH lig-getalp_T2a_M0_GBsurv
0xeb9c9a12516b2404f03664d4ff99a05 18-24 258 DEATH lig-getalp_T2a_M0_GBsurv
0xd4b363ca424fcb5495c55e256d228dcf 24-30 259 DEATH lig-getalp_T2a_M0_GBsurv
0xf1857c0071ce51fa75db9c0ccd92b34a 18-24 260 DEATH lig-getalp_T2a_M0_GBsurv
0xe18c99ff5b5c6cab7d196a80b58cac43 18-24 261 NIV lig-getalp_T2a_M0_GBsurv
0xf6e75b250207b024bc7a27acf84e2ea1 24-30 262 NIV lig-getalp_T2a_M0_GBsurv
0xe131e2e69ff731d99b83a026c9fe5580 18-24 263 DEATH lig-getalp_T2a_M0_GBsurv
0xf09ebd675a83f3afcaaf4e64977c3b1a 24-30 264 DEATH lig-getalp_T2a_M0_GBsurv
0xfba93d2e1f10b9e61d390fd5859a056a 18-24 265 DEATH lig-getalp_T2a_M0_GBsurv
0xf61e73ba8eb74ccfd07eee98cc7a8a55 18-24 266 DEATH lig-getalp_T2a_M0_GBsurv
0xfc4fc92c9512e0a9fd0658b0ae42c093 18-24 267 DEATH lig-getalp_T2a_M0_GBsurv
0xd54a2ea81d89a51632d04811cebeb8c3 30-36 268 NIV lig-getalp_T2a_M0_GBsurv
0xf7e5cdefcee841d2b6cc6c1e60f488a1 24-30 269 NIV lig-getalp_T2a_M0_GBsurv
0xf2487b792a8cb59a0f5c7db06196110c 18-24 270 DEATH lig-getalp_T2a_M0_GBsurv
0xd581144148304667e66df70e8913f154 18-24 271 DEATH lig-getalp_T2a_M0_GBsurv
0xdd5e2c8f8a84304f9f8357bff5b5d42e 24-30 272 NIV lig-getalp_T2a_M0_GBsurv
0xf018ff02e490ebf136e0462351c9995a 24-30 273 DEATH lig-getalp_T2a_M0_GBsurv
0xde5560cc3800f3797a36528b728b9b6f >36 274 NIV lig-getalp_T2a_M0_GBsurv
0xe9a50e135fe75c3fddfdc1abfc798b17 18-24 275 DEATH lig-getalp_T2a_M0_GBsurv
0xd49caf56339d1ef045ea7e03950039d4 30-36 276 NIV lig-getalp_T2a_M0_GBsurv
0xfd6cee8f40454120ee09c9fed24bcee1 18-24 277 DEATH lig-getalp_T2a_M0_GBsurv
0xdeb42eb3e20ddcab47803195d2e8dd9 24-30 278 DEATH lig-getalp_T2a_M0_GBsurv
0xed9f6346883b01b782874a9e1eba5cf3 >36 279 NONE lig-getalp_T2a_M0_GBsurv
0xdfb76e5655be6ec4c62c2cb98276aaa3 >36 280 NONE lig-getalp_T2a_M0_GBsurv
0xe68dc2738e74844599b493a91d2aaa1b >36 281 NONE lig-getalp_T2a_M0_GBsurv
0xe22e327df9138504c3ee7484a3f1dd9d >36 282 NONE lig-getalp_T2a_M0_GBsurv
0xd4d10cf490061439735b63ce33997c14 >36 283 NONE lig-getalp_T2a_M0_GBsurv
0xedaa4967a674ca7d995883be598a1a5c >36 284 NONE lig-getalp_T2a_M0_GBsurv
0xd5bd3c39db0ea9ec7fe864c579a8564a >36 285 NONE lig-getalp_T2a_M0_GBsurv
0xda6be9a63492d9182cb0e1ba803a99f3 >36 286 NONE lig-getalp_T2a_M0_GBsurv
0xd5792dfdb345bdca74578a5dd7e9c0fc >36 287 NONE lig-getalp_T2a_M0_GBsurv
0xf739a7606c240c989e91c7f80684264d >36 288 NONE lig-getalp_T2a_M0_GBsurv
0xec0916bb33028ec2d073de8f7d9b72c9 >36 289 NONE lig-getalp_T2a_M0_GBsurv
0xe6c9f4971f7d0be5178bcee41ec7ce40 >36 290 NONE lig-getalp_T2a_M0_GBsurv
0xd382daa6df0dca40fa815237180121d8 >36 291 NONE lig-getalp_T2a_M0_GBsurv
0xe279e335141f1938c4902e0542794860 >36 292 NONE lig-getalp_T2a_M0_GBsurv
0xdb5f9c198ddfc05cebd57e05ce1f65b0 >36 293 NONE lig-getalp_T2a_M0_GBsurv
0xe01aad010bf5a1a693431e2394b35293 >36 294 NONE lig-getalp_T2a_M0_GBsurv
0xfffd8c023601dac0ce9b21ab226b8a3d >36 295 NONE lig-getalp_T2a_M0_GBsurv
0xfe27d56439d608304d62e96402d693ad >36 296 NONE lig-getalp_T2a_M0_GBsurv
0xd5ffba53ba5ea58fbb117bc716014e12 >36 297 NONE lig-getalp_T2a_M0_GBsurv
0xfd825cb486e59a2700e5da7ce967f6a4 >36 298 NONE lig-getalp_T2a_M0_GBsurv
0xdb6d154fab2869d12355606be2b1a0a5 >36 299 NONE lig-getalp_T2a_M0_GBsurv
0xd5eb540595f0135ed7b2c9c3d36f4940 >36 300 NONE lig-getalp_T2a_M0_GBsurv
0xda8ab807ad39891ba8d380eae28d7301 >36 301 NONE lig-getalp_T2a_M0_GBsurv
0xffa9b0a3542580ba135d03f977b3e739 >36 302 NONE lig-getalp_T2a_M0_GBsurv
0xfed3fdca580330c527c11e25d1bfff5 >36 303 NONE lig-getalp_T2a_M0_GBsurv
0xec8f4f8e33c61d083b87631e1fc49471 >36 304 NONE lig-getalp_T2a_M0_GBsurv
0xf9520b99fe784fd0a89627834db4ac60 >36 305 NONE lig-getalp_T2a_M0_GBsurv
0xf4b4830578cde5e21fefe4f6af242ac7 >36 306 NONE lig-getalp_T2a_M0_GBsurv
0xfcaf34ef7b81ea5ab2a3ab42a06f57b8 >36 307 NONE lig-getalp_T2a_M0_GBsurv
0xe9beee41d19d1df18d9dd63e46cb3639 >36 308 NONE lig-getalp_T2a_M0_GBsurv
0xfdd6cfa13f857bca9b30dd309aa93b2d >36 309 NONE lig-getalp_T2a_M0_GBsurv
0xd6863d328e70d290894ca386305b1b0a >36 310 NONE lig-getalp_T2a_M0_GBsurv
0xfca94c4f6ab5f79eaf0b7651c88e810b >36 311 NONE lig-getalp_T2a_M0_GBsurv
0xe531418980aaa61c0b078360aa71b72e >36 312 NONE lig-getalp_T2a_M0_GBsurv
0xf37c5fe1faef6a4d71371899ffeb72a8 >36 313 NONE lig-getalp_T2a_M0_GBsurv
0xea9b939a5421bff79ef3e8b003145a9a >36 314 NONE lig-getalp_T2a_M0_GBsurv
0xfa81a092708523789aa2411a4cc59db8 >36 315 NONE lig-getalp_T2a_M0_GBsurv
0xd73350f7d616cb803f96f4f17678fd8f >36 316 NONE lig-getalp_T2a_M0_GBsurv
0xe9232b72bd6ea6c9e228c57744a7fc39 >36 317 NONE lig-getalp_T2a_M0_GBsurv
0xf5f92fa359184bb3bc4128daa09ad096 >36 318 NONE lig-getalp_T2a_M0_GBsurv
0xe427d2e116a2eb36221ba20ae7d44e4b >36 319 NONE lig-getalp_T2a_M0_GBsurv
0xef586cf6bff28e51a5fa24ecfd7ddf76 >36 320 NONE lig-getalp_T2a_M0_GBsurv
0xd935049213ea4ab7213df4ba9d0011bc >36 321 NONE lig-getalp_T2a_M0_GBsurv
0xfbc8eb23a6ec1008a7c9d1ffebdf5f58 >36 322 NONE lig-getalp_T2a_M0_GBsurv
0xd6619d152577d2686281f82eeb8dd69d >36 323 NONE lig-getalp_T2a_M0_GBsurv
0xe9eea3a099d373920d539f5c82a4a735 >36 324 NONE lig-getalp_T2a_M0_GBsurv
0xf99cf8d8fb1425bd6599947341f2c0a3 >36 325 NONE lig-getalp_T2a_M0_GBsurv
0xe8be87187b3a234913efaecbfd380340 >36 326 NONE lig-getalp_T2a_M0_GBsurv
0xd3eeae39e8592e4bc68736b593804ae0 >36 327 NONE lig-getalp_T2a_M0_GBsurv
0xf50bc52bad1fb3ab9d255d2b22ef09a1 >36 328 NONE lig-getalp_T2a_M0_GBsurv
0xf842e0468ca5476e1ba6c4045602bff4 >36 329 NONE lig-getalp_T2a_M0_GBsurv
0xe5c549844deda60cee96d67026b28ca7 >36 330 NONE lig-getalp_T2a_M0_GBsurv
0xf22dbd73e845b2d27907e07de22d7c29 >36 331 NONE lig-getalp_T2a_M0_GBsurv
0xdfd617655582234cf254aa4a1f8a54c2 >36 332 NONE lig-getalp_T2a_M0_GBsurv
0xed0929b7fd7230de56f15b1497383e77 >36 333 NONE lig-getalp_T2a_M0_GBsurv
0xd36718c707a259c6cad88c5b0f12bef9 >36 334 NONE lig-getalp_T2a_M0_GBsurv
0xfb6b88603cbfdcdccde6955a98e1f80f >36 335 NONE lig-getalp_T2a_M0_GBsurv
0xe47392b2331f8663812fe4c0b3a1c2b5 >36 336 NONE lig-getalp_T2a_M0_GBsurv
0xee673c7ae2e5429e5e7d7bb8021c1f97 >36 337 NONE lig-getalp_T2a_M0_GBsurv
0xf81866bdc8527ad3c31b8c3f120799a1 >36 338 NONE lig-getalp_T2a_M0_GBsurv
0xd6e36dc40dc7f14d135558b882a20e01 >36 339 NONE lig-getalp_T2a_M0_GBsurv
0xde16308d1d1aa5d87038aa16043406e7 >36 340 NONE lig-getalp_T2a_M0_GBsurv
0xe47aab7184db16d2565593d71df14757 >36 341 NONE lig-getalp_T2a_M0_GBsurv
0xdc20584b36f70c4819c9b9e7ac9b2e25 >36 342 NONE lig-getalp_T2a_M0_GBsurv
0xfcd62abf3423c170425d2a1c3c2eeb9 >36 343 NONE lig-getalp_T2a_M0_GBsurv
0xe9b435a20f9284d389e1f4a19208016d >36 344 NONE lig-getalp_T2a_M0_GBsurv
0xea8853b3ecfda6e662b26ae8814b3894 >36 345 NONE lig-getalp_T2a_M0_GBsurv
0xdea07ddceb79e747808204611ef914e6 >36 346 NONE lig-getalp_T2a_M0_GBsurv
0xfecb6f4ce1d71a01be44131645701abb >36 347 NONE lig-getalp_T2a_M0_GBsurv
0xe6899e5673718dd10ace49ea67eb434b >36 348 NONE lig-getalp_T2a_M0_GBsurv
0xf3f59173eebadd3eae124f69cbb33cfa >36 349 NONE lig-getalp_T2a_M0_GBsurv
